%YAML 1.1
%TAG !u! tag:unity3d.com,2011:
--- !u!114 &11400000
MonoBehaviour:
  m_ObjectHideFlags: 0
  m_CorrespondingSourceObject: {fileID: 0}
  m_PrefabInstance: {fileID: 0}
  m_PrefabAsset: {fileID: 0}
  m_GameObject: {fileID: 0}
  m_Enabled: 1
  m_EditorHideFlags: 0
  m_Script: {fileID: 0}
  m_Name: RocketSettingsDTO_0
  m_EditorClassIdentifier: Assembly-CSharp::RocketSettings
  velocity: 11
  angle: 0
  size: 0.5
  damage: 0.24
  lifeTime: 21
